<?xml version="1.0" encoding="UTF-8" standalone="no"?>
<!-- Created with Inkscape (http://www.inkscape.org/) -->

<svg
   xmlns:dc="http://purl.org/dc/elements/1.1/"
   xmlns:cc="http://creativecommons.org/ns#"
   xmlns:rdf="http://www.w3.org/1999/02/22-rdf-syntax-ns#"
   xmlns:svg="http://www.w3.org/2000/svg"
   xmlns="http://www.w3.org/2000/svg"
   xmlns:sodipodi="http://sodipodi.sourceforge.net/DTD/sodipodi-0.dtd"
   xmlns:inkscape="http://www.inkscape.org/namespaces/inkscape"
   width="64"
   height="64"
   viewBox="0 0 16.933333 16.933333"
   version="1.1"
   id="svg2424"
   inkscape:version="0.92.1 r15371"
   sodipodi:docname="favicon.svg"
   inkscape:export-filename="/var/www/apaddedcell/web/themes/contrib/starlight/favicon.png"
   inkscape:export-xdpi="96"
   inkscape:export-ydpi="96">
  <defs
     id="defs2418">
    <inkscape:perspective
       sodipodi:type="inkscape:persp3d"
       inkscape:vp_x="0 : 4.9784987 : 1"
       inkscape:vp_y="0 : 999.99997 : 0"
       inkscape:vp_z="37.766565 : 4.9784987 : 1"
       inkscape:persp3d-origin="18.883283 : 3.3189992 : 1"
       id="perspective4502" />
  </defs>
  <sodipodi:namedview
     id="base"
     pagecolor="#ffffff"
     bordercolor="#666666"
     borderopacity="1.0"
     inkscape:pageopacity="0.0"
     inkscape:pageshadow="2"
     inkscape:zoom="1.0210744"
     inkscape:cx="37.464903"
     inkscape:cy="-10.708879"
     inkscape:document-units="mm"
     inkscape:current-layer="g4728"
     showgrid="false"
     fit-margin-top="0"
     fit-margin-left="0"
     fit-margin-right="0"
     fit-margin-bottom="0"
     inkscape:window-width="704"
     inkscape:window-height="419"
     inkscape:window-x="824"
     inkscape:window-y="166"
     inkscape:window-maximized="0"
     showguides="true"
     inkscape:guide-bbox="true"
     units="px">
    <sodipodi:guide
       position="43.880919,-1.7049568"
       orientation="0,1"
       id="guide4589"
       inkscape:locked="false" />
  </sodipodi:namedview>
  <metadata
     id="metadata2421">
    <rdf:RDF>
      <cc:Work
         rdf:about="">
        <dc:format>image/svg+xml</dc:format>
        <dc:type
           rdf:resource="http://purl.org/dc/dcmitype/StillImage" />
        <dc:title></dc:title>
      </cc:Work>
    </rdf:RDF>
  </metadata>
  <g
     inkscape:label="Layer 1"
     inkscape:groupmode="layer"
     id="layer1"
     transform="translate(2.6323076,-103.15971)">
    <g
       id="g4728"
       transform="matrix(1.6478183,0,0,1.6478183,3.1537896,-77.872754)"
       style="stroke-width:0.60686302">
      <path
         style="fill:#171d90;fill-opacity:0.9901962;stroke-width:0.16056585"
         d="m 1.3275871,110.13599 c 0.2703507,2.82828 -2.575604,1.80008 -3.6302693,4.40852 -0.7041004,1.74688 -0.3569887,3.8853 1.79162192,5.03845 2.14861078,1.15316 5.33277218,0.29293 6.31227608,-1.99368 0.6625079,-1.62804 0.1389094,-3.12945 -0.9699667,-4.27054 -1.1088759,-1.14108 -2.5182658,-2.00352 -3.503662,-3.18275 z"
         id="path36"
         inkscape:connector-curvature="0"
         sodipodi:nodetypes="cccccc" />
      <g
         style="fill:#3d599c;fill-opacity:1;stroke-width:0.48175785"
         transform="matrix(1.2596847,0,0,1.2596847,0.2443628,-29.906309)"
         id="g4590"
         inkscape:export-xdpi="96"
         inkscape:export-ydpi="96">
        <path
           sodipodi:nodetypes="ccc"
           inkscape:connector-curvature="0"
           id="path4528"
           d="m 1.2533532,118.79713 c -0.27065158,-3.11231 -0.31111665,-3.36692 -0.046362,-6.3714 0.2585559,2.87682 0.2537067,3.1964 0.046362,6.3714 z"
           style="opacity:1;fill:#ffffff;fill-opacity:1;fill-rule:evenodd;stroke:none;stroke-width:0.28905469;stroke-linecap:round;stroke-linejoin:round;stroke-miterlimit:4;stroke-dasharray:none;stroke-opacity:1" />
        <path
           style="opacity:1;fill:#ffffff;fill-opacity:1;fill-rule:evenodd;stroke:none;stroke-width:0.28905469;stroke-linecap:round;stroke-linejoin:round;stroke-miterlimit:4;stroke-dasharray:none;stroke-opacity:1"
           d="m -1.969044,115.64814 c 3.1123101,-0.27065 3.3669201,-0.31111 6.3714001,-0.0464 -2.87682,0.25856 -3.1964,0.25371 -6.3714001,0.0464 z"
           id="path4531"
           inkscape:connector-curvature="0"
           sodipodi:nodetypes="ccc" />
        <path
           style="opacity:1;fill:#ffffff;fill-opacity:1;fill-rule:evenodd;stroke:none;stroke-width:0.28905469;stroke-linecap:round;stroke-linejoin:round;stroke-miterlimit:4;stroke-dasharray:none;stroke-opacity:1"
           d="m -0.50520323,117.40912 c 1.54088803,-1.83441 1.65700803,-1.99442 3.42974903,-3.48002 -1.4197525,1.70015 -1.5956741,1.87081 -3.42974903,3.48002 z"
           id="path4533"
           inkscape:connector-curvature="0"
           sodipodi:nodetypes="ccc" />
        <path
           sodipodi:nodetypes="ccc"
           inkscape:connector-curvature="0"
           id="path4535"
           d="m -0.54500823,113.95424 c 1.83440853,1.54089 1.99441013,1.65701 3.48004923,3.42973 -1.7001584,-1.41975 -1.8708206,-1.59568 -3.48004923,-3.42973 z"
           style="opacity:1;fill:#ffffff;fill-opacity:1;fill-rule:evenodd;stroke:none;stroke-width:0.28905469;stroke-linecap:round;stroke-linejoin:round;stroke-miterlimit:4;stroke-dasharray:none;stroke-opacity:1" />
        <circle
           r="0.15534633"
           cy="113.975"
           cx="2.9157162"
           id="path4537"
           style="opacity:1;fill:#ffffff;fill-opacity:1;fill-rule:evenodd;stroke:none;stroke-width:0.28905469;stroke-linecap:round;stroke-linejoin:round;stroke-miterlimit:4;stroke-dasharray:none;stroke-opacity:1" />
        <circle
           style="opacity:1;fill:#ffffff;fill-opacity:1;fill-rule:evenodd;stroke:none;stroke-width:0.28905469;stroke-linecap:round;stroke-linejoin:round;stroke-miterlimit:4;stroke-dasharray:none;stroke-opacity:1"
           id="circle4539"
           cx="2.8792326"
           cy="117.33147"
           r="0.15534633" />
        <circle
           r="0.15534633"
           cy="117.36795"
           cx="-0.45900521"
           id="circle4541"
           style="opacity:1;fill:#ffffff;fill-opacity:1;fill-rule:evenodd;stroke:none;stroke-width:0.28905469;stroke-linecap:round;stroke-linejoin:round;stroke-miterlimit:4;stroke-dasharray:none;stroke-opacity:1" />
        <circle
           style="opacity:1;fill:#ffffff;fill-opacity:1;fill-rule:evenodd;stroke:none;stroke-width:0.28905469;stroke-linecap:round;stroke-linejoin:round;stroke-miterlimit:4;stroke-dasharray:none;stroke-opacity:1"
           id="circle4543"
           cx="-0.51373041"
           cy="114.06619"
           r="0.15534633" />
      </g>
    </g>
  </g>
</svg>
