<?xml version="1.0" encoding="UTF-8" standalone="no"?>
<svg
   xmlns:dc="http://purl.org/dc/elements/1.1/"
   xmlns:cc="http://creativecommons.org/ns#"
   xmlns:rdf="http://www.w3.org/1999/02/22-rdf-syntax-ns#"
   xmlns:svg="http://www.w3.org/2000/svg"
   xmlns="http://www.w3.org/2000/svg"
   id="svg8"
   version="1.1"
   viewBox="0 0 22.797604 43.926792"
   height="43.926792mm"
   width="22.797604mm">
  <defs
     id="defs2" />
  <metadata
     id="metadata5">
    <rdf:RDF>
      <cc:Work
         rdf:about="">
        <dc:format>image/svg+xml</dc:format>
        <dc:type
           rdf:resource="http://purl.org/dc/dcmitype/StillImage" />
        <dc:title></dc:title>
      </cc:Work>
    </rdf:RDF>
  </metadata>
  <g
     transform="translate(-10.438585,-65.726812)"
     id="layer1">
    <path
       id="path4489"
       d="m 16.332654,68.673847 c -0.846587,-1.024262 -1.888709,-1.915392 -2.811199,-2.887975 -0.595376,0.01729 -0.96514,0.834782 -1.461501,1.18983 -0.524513,0.576903 -1.173346,1.069162 -1.621369,1.698145 0.346786,0.914717 1.009612,0.08928 1.395915,-0.338761 0.51704,-0.51704 1.03408,-1.03408 1.55112,-1.55112 0.829956,0.777189 1.574802,1.679382 2.456845,2.38007 0.201773,-0.08981 0.409493,-0.278622 0.490189,-0.490189 z" />
    <path
       id="path4492"
       d="m 16.332654,78.075623 c -0.846587,1.024262 -1.888709,1.915392 -2.811199,2.887975 -0.595376,-0.01729 -0.96514,-0.834782 -1.461501,-1.18983 -0.524513,-0.576903 -1.173346,-1.069162 -1.621369,-1.698145 0.346786,-0.914717 1.009612,-0.08928 1.395915,0.338761 0.51704,0.51704 1.03408,1.03408 1.55112,1.55112 0.829956,-0.777189 1.574802,-1.679382 2.456845,-2.38007 0.201773,0.08981 0.409493,0.278622 0.490189,0.490189 z" />
    <path
       id="path4496"
       d="m 12.157196,89.444064 c 1.024262,0.846587 1.915392,1.888709 2.887975,2.811199 -0.01729,0.595376 -0.834782,0.96514 -1.18983,1.461501 -0.576903,0.524513 -1.069162,1.173346 -1.698145,1.621369 -0.914717,-0.346786 -0.08928,-1.009612 0.338761,-1.395915 0.51704,-0.51704 1.03408,-1.03408 1.55112,-1.55112 -0.777189,-0.829956 -1.679382,-1.574802 -2.38007,-2.456845 0.08981,-0.201773 0.278622,-0.409493 0.490189,-0.490189 z" />
    <path
       id="path4500"
       d="m 14.614042,103.75953 c -1.02424,0.84666 -1.915396,1.88873 -2.887975,2.81124 0.01729,0.59538 0.834782,0.96514 1.18983,1.4615 0.576899,0.52454 1.069186,1.17331 1.698145,1.62141 0.914701,-0.34685 0.0893,-1.00963 -0.338761,-1.39595 -0.51704,-0.51704 -1.03408,-1.03408 -1.55112,-1.55112 0.777188,-0.82996 1.679389,-1.5748 2.38007,-2.45685 -0.08981,-0.20179 -0.278642,-0.40946 -0.490189,-0.49023 z" />
    <path
       style="fill:#ffffff;fill-opacity:1"
       id="path4504"
       d="m 33.236189,68.673847 c -0.846587,-1.024262 -1.888709,-1.915392 -2.811199,-2.887975 -0.595376,0.01729 -0.96514,0.834782 -1.461501,1.18983 -0.524513,0.576903 -1.173346,1.069162 -1.621369,1.698145 0.346786,0.914717 1.009612,0.08928 1.395915,-0.338761 0.51704,-0.51704 1.03408,-1.03408 1.55112,-1.55112 0.829956,0.777189 1.574802,1.679382 2.456845,2.38007 0.201773,-0.08981 0.409493,-0.278622 0.490189,-0.490189 z" />
    <path
       style="fill:#ffffff;fill-opacity:1"
       id="path4508"
       d="m 33.236189,78.075623 c -0.846587,1.024262 -1.888709,1.915392 -2.811199,2.887975 -0.595376,-0.01729 -0.96514,-0.834782 -1.461501,-1.18983 -0.524513,-0.576903 -1.173346,-1.069162 -1.621369,-1.698145 0.346786,-0.914717 1.009612,-0.08928 1.395915,0.338761 0.51704,0.51704 1.03408,1.03408 1.55112,1.55112 0.829956,-0.777189 1.574802,-1.679382 2.456845,-2.38007 0.201773,0.08981 0.409493,0.278622 0.490189,0.490189 z" />
    <path
       style="fill:#ffffff;fill-opacity:1"
       id="path4512"
       d="m 29.060731,89.444064 c 1.024262,0.846587 1.915392,1.888709 2.887975,2.811199 -0.01729,0.595376 -0.834782,0.96514 -1.18983,1.461501 -0.576903,0.524513 -1.069162,1.173346 -1.698145,1.621369 -0.914717,-0.346786 -0.08928,-1.009612 0.338761,-1.395915 0.51704,-0.51704 1.03408,-1.03408 1.55112,-1.55112 -0.777189,-0.829956 -1.679382,-1.574802 -2.38007,-2.456845 0.08981,-0.201773 0.278622,-0.409493 0.490189,-0.490189 z" />
    <path
       style="fill:#ffffff;fill-opacity:1"
       id="path4516"
       d="m 31.517578,103.75953 c -1.02424,0.84666 -1.915396,1.88873 -2.887975,2.81124 0.01729,0.59538 0.834782,0.96514 1.18983,1.4615 0.576899,0.52454 1.069186,1.17331 1.698145,1.62141 0.914701,-0.34685 0.0893,-1.00963 -0.338761,-1.39595 -0.51704,-0.51704 -1.03408,-1.03408 -1.55112,-1.55112 0.777188,-0.82996 1.679389,-1.5748 2.38007,-2.45685 -0.08981,-0.20179 -0.278642,-0.40946 -0.490189,-0.49023 z" />
  </g>
</svg>
